//==============================================================================
// AppFW_Readme
// AppFW_Ver20170116
// 作成者 : 松本 隆介
//==============================================================================

このフレームワークを利用するのに必要な追加アセットはありません。

以下このフレームワークの利用方法など時間のある時に記述予定。




